Garden Amenities
…
amenities_tidy %>% select(parksid) %>% unique()

## # A tibble: 355 × 1
##    parksid    
##    <chr>      
##  1 B544-GT001 
##  2 M397-GT001 
##  3 M331-GT002 
##  4 M297A-GT001
##  5 X277-GT001 
##  6 B535-GT001 
##  7 B575-GT001 
##  8 B553-GT001 
##  9 M313-GT001 
## 10 M293-GT001 
## # ℹ 345 more rows
…
